G04*
G04 #@! TF.GenerationSoftware,Altium Limited,Altium Designer,18.1.9 (240)*
G04*
G04 Layer_Physical_Order=8*
G04 Layer_Color=16711680*
%FSLAX44Y44*%
%MOMM*%
G71*
G01*
G75*
%ADD24R,1.7000X1.1000*%
%ADD26R,1.2500X1.0500*%
%ADD28R,1.0500X1.2500*%
%ADD30R,0.5000X0.3000*%
%ADD44R,1.1000X1.7000*%
%ADD85C,1.0000*%
%ADD86C,0.4500*%
%ADD88C,0.5000*%
%ADD90C,1.5000*%
%ADD91C,1.5240*%
%ADD92C,2.0000*%
%ADD93C,2.5000*%
%ADD94C,1.0000*%
%ADD95C,0.5000*%
%ADD96C,0.6000*%
%ADD98C,1.5000*%
%ADD99C,1.4000*%
%ADD100R,1.4000X0.3500*%
%ADD101R,1.1500X0.8000*%
%ADD102R,1.4500X0.6000*%
%ADD103R,0.9000X1.8000*%
%ADD104R,0.9000X0.6000*%
%ADD105R,1.8000X0.9000*%
%ADD106R,0.6000X0.9000*%
%ADD107R,1.3500X0.6500*%
%ADD108R,1.5000X0.4500*%
%ADD109R,1.4000X0.4500*%
%ADD110C,0.3500*%
G36*
X783600Y637900D02*
X779600Y633900D01*
Y599900D01*
X783600Y595900D01*
X792600D01*
X796600Y599900D01*
Y633900D01*
X792600Y637900D01*
X783600D01*
D02*
G37*
G36*
X945000Y650000D02*
X941000Y646000D01*
Y612000D01*
X945000Y608000D01*
X954000D01*
X958000Y612000D01*
Y646000D01*
X954000Y650000D01*
X945000D01*
D02*
G37*
G36*
X1030600D02*
X1026600Y646000D01*
Y612000D01*
X1030600Y608000D01*
X1039600D01*
X1043600Y612000D01*
Y646000D01*
X1039600Y650000D01*
X1030600D01*
D02*
G37*
G36*
X1234600Y641900D02*
X1230600Y637900D01*
Y603900D01*
X1234600Y599900D01*
X1243600D01*
X1247600Y603900D01*
Y637900D01*
X1243600Y641900D01*
X1234600D01*
D02*
G37*
G36*
X740400Y1351100D02*
X744400Y1355100D01*
Y1389100D01*
X740400Y1393100D01*
X731400D01*
X727400Y1389100D01*
Y1355100D01*
X731400Y1351100D01*
X740400D01*
D02*
G37*
G36*
X935400Y1347100D02*
X939400Y1351100D01*
Y1385100D01*
X935400Y1389100D01*
X926400D01*
X922400Y1385100D01*
Y1351100D01*
X926400Y1347100D01*
X935400D01*
D02*
G37*
G36*
X1028400Y1347100D02*
X1032400Y1351100D01*
Y1385100D01*
X1028400Y1389100D01*
X1019400D01*
X1015400Y1385100D01*
Y1351100D01*
X1019400Y1347100D01*
X1028400D01*
D02*
G37*
G36*
X1243500D02*
X1247500Y1351100D01*
Y1385100D01*
X1243500Y1389100D01*
X1234500D01*
X1230500Y1385100D01*
Y1351100D01*
X1234500Y1347100D01*
X1243500D01*
D02*
G37*
G36*
X1363000Y586500D02*
X1367000Y582500D01*
X1401000D01*
X1405000Y586500D01*
Y595500D01*
X1401000Y599500D01*
X1367000D01*
X1363000Y595500D01*
Y586500D01*
D02*
G37*
G36*
X1530600Y641900D02*
X1526600Y637900D01*
Y603900D01*
X1530600Y599900D01*
X1539600D01*
X1543600Y603900D01*
Y637900D01*
X1539600Y641900D01*
X1530600D01*
D02*
G37*
G36*
X1624600D02*
X1620600Y637900D01*
Y603900D01*
X1624600Y599900D01*
X1633600D01*
X1637600Y603900D01*
Y637900D01*
X1633600Y641900D01*
X1624600D01*
D02*
G37*
G36*
X1822600D02*
X1818600Y637900D01*
Y603900D01*
X1822600Y599900D01*
X1831600D01*
X1835600Y603900D01*
Y637900D01*
X1831600Y641900D01*
X1822600D01*
D02*
G37*
G36*
X1336400Y1347100D02*
X1340400Y1351100D01*
Y1385100D01*
X1336400Y1389100D01*
X1327400D01*
X1323400Y1385100D01*
Y1351100D01*
X1327400Y1347100D01*
X1336400D01*
D02*
G37*
G36*
X1517400D02*
X1521400Y1351100D01*
Y1385100D01*
X1517400Y1389100D01*
X1508400D01*
X1504400Y1385100D01*
Y1351100D01*
X1508400Y1347100D01*
X1517400D01*
D02*
G37*
G36*
X1607400D02*
X1611400Y1351100D01*
Y1385100D01*
X1607400Y1389100D01*
X1598400D01*
X1594400Y1385100D01*
Y1351100D01*
X1598400Y1347100D01*
X1607400D01*
D02*
G37*
G36*
X1806400D02*
X1810400Y1351100D01*
Y1385100D01*
X1806400Y1389100D01*
X1797400D01*
X1793400Y1385100D01*
Y1351100D01*
X1797400Y1347100D01*
X1806400D01*
D02*
G37*
D24*
X376560Y417460D02*
D03*
Y444460D02*
D03*
X1912000Y1072351D02*
D03*
Y1045351D02*
D03*
Y1126000D02*
D03*
Y1099000D02*
D03*
X942000Y1037500D02*
D03*
Y1064500D02*
D03*
X1909101Y950851D02*
D03*
Y923851D02*
D03*
Y1003851D02*
D03*
Y976851D02*
D03*
X949000Y947500D02*
D03*
Y974500D02*
D03*
Y894000D02*
D03*
Y921000D02*
D03*
X859000Y1349500D02*
D03*
Y1376500D02*
D03*
X1431000Y668500D02*
D03*
Y641500D02*
D03*
X1468000Y1298500D02*
D03*
Y1271500D02*
D03*
X915400Y1300000D02*
D03*
Y1273000D02*
D03*
X1386000Y640000D02*
D03*
Y667000D02*
D03*
X1049000Y690500D02*
D03*
Y717500D02*
D03*
X942000Y1115500D02*
D03*
Y1088500D02*
D03*
X854000Y670500D02*
D03*
Y643500D02*
D03*
X803000Y669200D02*
D03*
Y696200D02*
D03*
X1722000Y1354600D02*
D03*
Y1381600D02*
D03*
X1745000Y680500D02*
D03*
Y653500D02*
D03*
X1144000Y658000D02*
D03*
Y631000D02*
D03*
X1788000Y1289500D02*
D03*
Y1262500D02*
D03*
X1224000Y1300000D02*
D03*
Y1273000D02*
D03*
X1652000Y694500D02*
D03*
Y721500D02*
D03*
X1448000Y1354600D02*
D03*
Y1381600D02*
D03*
X1148000Y1349500D02*
D03*
Y1376500D02*
D03*
D26*
X1158651Y1014961D02*
D03*
Y998461D02*
D03*
X1156899Y951351D02*
D03*
Y934851D02*
D03*
X1158459Y888149D02*
D03*
Y871649D02*
D03*
X1122899Y888149D02*
D03*
Y871649D02*
D03*
X1635000Y368001D02*
D03*
Y384501D02*
D03*
X1797000Y1644499D02*
D03*
Y1660999D02*
D03*
X1508101Y1644499D02*
D03*
Y1660999D02*
D03*
X1339899Y368102D02*
D03*
Y384602D02*
D03*
X1219000Y1644499D02*
D03*
Y1660999D02*
D03*
X1045000Y368001D02*
D03*
Y384501D02*
D03*
X931101Y1644500D02*
D03*
Y1661000D02*
D03*
X754899Y368001D02*
D03*
Y384501D02*
D03*
X1498899Y1139851D02*
D03*
Y1156351D02*
D03*
X1475899Y826851D02*
D03*
Y843351D02*
D03*
X884899Y828851D02*
D03*
Y845351D02*
D03*
X1857899Y1055851D02*
D03*
Y1072351D02*
D03*
X997000Y1115149D02*
D03*
Y1098649D02*
D03*
X1850899Y932851D02*
D03*
Y949351D02*
D03*
X1007304Y964149D02*
D03*
Y947649D02*
D03*
X1885899Y1055851D02*
D03*
Y1072351D02*
D03*
X970101Y1115149D02*
D03*
Y1098649D02*
D03*
X1879798Y933201D02*
D03*
Y949701D02*
D03*
X978202Y964149D02*
D03*
Y947649D02*
D03*
X1857899Y1100851D02*
D03*
Y1117351D02*
D03*
X999101Y1065149D02*
D03*
Y1048649D02*
D03*
X1850798Y978201D02*
D03*
Y994701D02*
D03*
X1007202Y920149D02*
D03*
Y903649D02*
D03*
X1885798Y1100851D02*
D03*
Y1117351D02*
D03*
X971101Y1065149D02*
D03*
Y1048649D02*
D03*
X1879101Y978351D02*
D03*
Y994851D02*
D03*
X978101Y921000D02*
D03*
Y904500D02*
D03*
X1624000Y1157550D02*
D03*
Y1141050D02*
D03*
X1024101Y1214149D02*
D03*
Y1197649D02*
D03*
X1632101Y859149D02*
D03*
Y842649D02*
D03*
X1028201Y857149D02*
D03*
Y840649D02*
D03*
X1519000Y1149000D02*
D03*
Y1132500D02*
D03*
X913000Y1198500D02*
D03*
Y1182000D02*
D03*
X1503000Y842500D02*
D03*
Y826000D02*
D03*
X904000Y844500D02*
D03*
Y828000D02*
D03*
D28*
X1655000Y1584101D02*
D03*
X1671500D02*
D03*
X1034500D02*
D03*
X1051000D02*
D03*
X1808149Y436899D02*
D03*
X1791649D02*
D03*
X1226149Y436899D02*
D03*
X1209649D02*
D03*
X1647000Y1148000D02*
D03*
X1663500D02*
D03*
X1049851Y1197101D02*
D03*
X1066351D02*
D03*
X1662000Y843000D02*
D03*
X1678500D02*
D03*
X1056951Y841101D02*
D03*
X1073451D02*
D03*
X1359851Y1584101D02*
D03*
X1376351D02*
D03*
X755851D02*
D03*
X772351D02*
D03*
X1520649Y432548D02*
D03*
X1504149D02*
D03*
X924149Y440798D02*
D03*
X907649D02*
D03*
X892000Y1189000D02*
D03*
X875500D02*
D03*
D30*
X591120Y1831000D02*
D03*
X598120D02*
D03*
X901000D02*
D03*
X908000D02*
D03*
X693990D02*
D03*
X700990D02*
D03*
X560640D02*
D03*
X567640D02*
D03*
X403580Y448740D02*
D03*
X410580D02*
D03*
X434060D02*
D03*
X441060D02*
D03*
X541200Y538740D02*
D03*
X548200D02*
D03*
X571680D02*
D03*
X578680D02*
D03*
X602160D02*
D03*
X609160D02*
D03*
X368330Y551610D02*
D03*
X375330D02*
D03*
X338810Y448740D02*
D03*
X345810D02*
D03*
X307060D02*
D03*
X314060D02*
D03*
D44*
X895500Y894000D02*
D03*
X922500D02*
D03*
X1383500Y1288000D02*
D03*
X1410500D02*
D03*
X775000Y1290000D02*
D03*
X802000D02*
D03*
X964900Y528100D02*
D03*
X937900D02*
D03*
X1316399Y1457000D02*
D03*
X1343399D02*
D03*
X720500D02*
D03*
X747500D02*
D03*
X1376399D02*
D03*
X1403399D02*
D03*
X788000D02*
D03*
X815000D02*
D03*
X1494000Y565649D02*
D03*
X1467000D02*
D03*
X869000Y440899D02*
D03*
X842000D02*
D03*
X1194500Y699000D02*
D03*
X1167500D02*
D03*
X1585500Y1457000D02*
D03*
X1612500D02*
D03*
X1008900D02*
D03*
X1035900D02*
D03*
X1843500Y565650D02*
D03*
X1816500D02*
D03*
X1254500Y560000D02*
D03*
X1227500D02*
D03*
X1194500D02*
D03*
X1167500D02*
D03*
X1316399Y1501000D02*
D03*
X1343399D02*
D03*
X720500D02*
D03*
X747500D02*
D03*
X1551000Y524000D02*
D03*
X1524000D02*
D03*
X893500Y710000D02*
D03*
X866500D02*
D03*
X720500Y1540000D02*
D03*
X747500D02*
D03*
X1550500Y477649D02*
D03*
X1523500D02*
D03*
X964400Y491100D02*
D03*
X937400D02*
D03*
X963900Y572100D02*
D03*
X936900D02*
D03*
X1372399Y1540000D02*
D03*
X1399399D02*
D03*
X785000D02*
D03*
X812000D02*
D03*
X1491500Y478000D02*
D03*
X1464500D02*
D03*
X893500Y491000D02*
D03*
X866500D02*
D03*
X1412500Y1584000D02*
D03*
X1439500D02*
D03*
X810500D02*
D03*
X837500D02*
D03*
X1478000Y432548D02*
D03*
X1451000D02*
D03*
X907900Y571100D02*
D03*
X880900D02*
D03*
X1671500Y1289500D02*
D03*
X1698500D02*
D03*
X1082500Y1283000D02*
D03*
X1109500D02*
D03*
X1585500Y1501000D02*
D03*
X1612500D02*
D03*
X1010000D02*
D03*
X1037000D02*
D03*
X1843500Y524000D02*
D03*
X1816500D02*
D03*
X1254500D02*
D03*
X1227500D02*
D03*
X1585500Y1545000D02*
D03*
X1612500D02*
D03*
X1010000Y1540000D02*
D03*
X1037000D02*
D03*
X1843500Y476000D02*
D03*
X1816500D02*
D03*
X1254500Y481000D02*
D03*
X1227500D02*
D03*
X1648500Y1545000D02*
D03*
X1675500D02*
D03*
X1064500Y1540000D02*
D03*
X1091500D02*
D03*
X1788000Y476000D02*
D03*
X1761000D02*
D03*
X1702500Y1584000D02*
D03*
X1729500D02*
D03*
X1648000Y1457000D02*
D03*
X1675000D02*
D03*
X1083000Y1584000D02*
D03*
X1110000D02*
D03*
X1065500Y1457000D02*
D03*
X1092500D02*
D03*
X1765500Y437000D02*
D03*
X1738500D02*
D03*
X1789500Y565650D02*
D03*
X1762500D02*
D03*
X1176500Y436000D02*
D03*
X1149500D02*
D03*
X1938500Y1126000D02*
D03*
X1965500D02*
D03*
X915500Y1037500D02*
D03*
X888500D02*
D03*
X1935601Y1004351D02*
D03*
X1962601D02*
D03*
X916500Y1115000D02*
D03*
X889500D02*
D03*
X1935601Y923851D02*
D03*
X1962601D02*
D03*
X921500Y974000D02*
D03*
X894500D02*
D03*
X1473500Y712000D02*
D03*
X1500500D02*
D03*
X1316399Y1540000D02*
D03*
X1343399D02*
D03*
X1551000Y565649D02*
D03*
X1524000D02*
D03*
X1784500Y719800D02*
D03*
X1811500D02*
D03*
X1197500Y481000D02*
D03*
X1170500D02*
D03*
X1936500Y1045351D02*
D03*
X1963500D02*
D03*
D85*
X1089000Y1196000D02*
G03*
X1087899Y1197101I-1101J0D01*
G01*
X1497000Y873000D02*
G03*
X1475899Y851899I0J-21101D01*
G01*
X1733000Y818000D02*
G03*
X1708000Y843000I-25000J0D01*
G01*
X1086601Y841101D02*
G03*
X1091500Y846000I0J4899D01*
G01*
X1785000Y717500D02*
Y733000D01*
X1796000Y744000D01*
X1807000D01*
X1473500Y712000D02*
Y725500D01*
X1495000Y747000D01*
X1508000D01*
X1179000Y757000D02*
X1194500Y741500D01*
Y699000D02*
Y741500D01*
X893500Y710000D02*
Y727851D01*
X869351Y752000D02*
X893500Y727851D01*
X1498899Y1156351D02*
X1499000Y1156452D01*
Y1173000D01*
X1682000Y1148000D02*
X1700000Y1166000D01*
X1663500Y1148000D02*
X1682000D01*
X875500Y1189000D02*
Y1214500D01*
X896000Y1235000D01*
X969000D01*
X994000Y1260000D01*
X1032101D01*
X1066351Y1197101D02*
X1087899D01*
X1475899Y843351D02*
Y851899D01*
X1678500Y843000D02*
X1708000D01*
X1073451Y841101D02*
X1086601D01*
D86*
X1113000Y851000D02*
X1127150Y836850D01*
X1112000Y821468D02*
Y821750D01*
Y806750D02*
X1117950D01*
X1237000Y791000D02*
X1239000Y793000D01*
X1231350Y784650D02*
X1239000Y777000D01*
X1112000Y791750D02*
X1112750Y791000D01*
X1219700Y803700D02*
X1239000Y823000D01*
X1228350Y797350D02*
X1239000Y808000D01*
X1205000Y784650D02*
X1231350D01*
X1120950Y823282D02*
X1134182Y810050D01*
X1150000D01*
X1112750Y837000D02*
X1120950Y828800D01*
Y823282D02*
Y828800D01*
X1127150Y825850D02*
Y836850D01*
Y825850D02*
X1136600Y816400D01*
X1150000D01*
X1181000Y1211000D02*
X1181768D01*
X1203943Y1188825D01*
X1225500D01*
X1181000Y1196000D02*
X1188000D01*
X1201525Y1182475D01*
X1225500D01*
X1181000Y1181000D02*
X1192000D01*
X1196875Y1176125D01*
X1225500D01*
X1181000Y1165000D02*
X1185775Y1169775D01*
X1225500D01*
X1405000Y1133500D02*
X1424900D01*
X1349675Y1188825D02*
X1405000Y1133500D01*
X1280500Y1188825D02*
X1349675D01*
X1403500Y1118500D02*
X1424900D01*
X1339525Y1182475D02*
X1403500Y1118500D01*
X1280500Y1182475D02*
X1339525D01*
X1401500Y1103500D02*
X1424900D01*
X1328875Y1176125D02*
X1401500Y1103500D01*
X1280500Y1176125D02*
X1328875D01*
X1404000Y1087500D02*
X1424900D01*
X1321725Y1169775D02*
X1404000Y1087500D01*
X1280500Y1169775D02*
X1321725D01*
X917500Y1115500D02*
X942000D01*
X917000Y1115000D02*
X917500Y1115500D01*
X916500Y1115000D02*
X917000D01*
X915500Y1037500D02*
X942000D01*
X922500Y894000D02*
X949000D01*
X922000Y974500D02*
X949000D01*
X921500Y974000D02*
X922000Y974500D01*
X949000Y894000D02*
X961000D01*
X971500Y904500D01*
X978101D01*
X978952Y903649D01*
X1007202D01*
X978202Y964149D02*
X1007304D01*
X968000D02*
X978202D01*
X957649Y974500D02*
X968000Y964149D01*
X949000Y974500D02*
X957649D01*
X971101Y1048649D02*
X999101D01*
X964649D02*
X971101D01*
X953500Y1037500D02*
X964649Y1048649D01*
X942000Y1037500D02*
X953500D01*
X969751Y1115500D02*
X970101Y1115149D01*
X942000Y1115500D02*
X969751D01*
X970101Y1115149D02*
X997000D01*
X1889520Y994851D02*
X1898520Y1003851D01*
X1879101Y994851D02*
X1889520D01*
X1850947D02*
X1879101D01*
X1850798Y994701D02*
X1850947Y994851D01*
X1850899Y932851D02*
X1851250Y933201D01*
X1879798D01*
X1889250D01*
X1898601Y923851D01*
X1909101D01*
X1935601D01*
X1912000Y1126000D02*
X1938500D01*
X1901000D02*
X1912000D01*
X1892351Y1117351D02*
X1901000Y1126000D01*
X1885798Y1117351D02*
X1892351D01*
X1857899D02*
X1885798D01*
X1857899Y1055851D02*
X1885899D01*
X1894149D01*
X1904649Y1045351D01*
X1912000D01*
X1936500D01*
X1112000Y821468D02*
X1129768Y803700D01*
X1117950Y806750D02*
X1127350Y797350D01*
X1129768Y803700D02*
X1150000D01*
X1127350Y797350D02*
X1150000D01*
X1112750Y791000D02*
X1150000D01*
X1112000Y775750D02*
X1120900Y784650D01*
X1150000D01*
X1205000Y803700D02*
X1219700D01*
X1205000Y797350D02*
X1228350D01*
X1205000Y791000D02*
X1237000D01*
D88*
X1630000Y1313000D02*
G03*
X1616000Y1327000I-14000J0D01*
G01*
X1625000Y1304000D02*
G03*
X1630000Y1309000I0J5000D01*
G01*
X1423600D02*
G03*
X1449000Y1334400I0J25400D01*
G01*
X1032000Y1322000D02*
G03*
X1027000Y1327000I-5000J0D01*
G01*
X1023900Y1330100D02*
G03*
X1027000Y1327000I3100J0D01*
G01*
X833600Y1315000D02*
G03*
X859000Y1340400I0J25400D01*
G01*
X776000Y1315000D02*
G03*
X775000Y1314000I0J-1000D01*
G01*
X1082500Y1283000D02*
G03*
X1083000Y1283500I0J500D01*
G01*
X1122600Y1315000D02*
G03*
X1148000Y1340400I0J25400D01*
G01*
X1602900Y1340100D02*
G03*
X1616000Y1327000I13100J0D01*
G01*
X1344000Y1319000D02*
G03*
X1338000Y1325000I-6000J0D01*
G01*
X1331900Y1331100D02*
G03*
X1338000Y1325000I6100J0D01*
G01*
X1696600Y1304000D02*
G03*
X1722000Y1329400I0J25400D01*
G01*
X1785000Y693000D02*
G03*
X1786000Y692000I1000J0D01*
G01*
X1830000D02*
G03*
X1827100Y689100I0J-2900D01*
G01*
X1756500Y692000D02*
G03*
X1745000Y680500I0J-11500D01*
G01*
X1535100Y680900D02*
G03*
X1527000Y689000I-8100J0D01*
G01*
X1473000Y690000D02*
G03*
X1474000Y689000I1000J0D01*
G01*
X1444000D02*
G03*
X1431000Y676000I0J-13000D01*
G01*
X1240000Y641000D02*
G03*
X1241000Y640000I1000J0D01*
G01*
X737000Y1347000D02*
G03*
X735900Y1348100I-1100J0D01*
G01*
X1194000Y695500D02*
G03*
X1193000Y694500I0J-1000D01*
G01*
X1240000Y667000D02*
G03*
X1237000Y670000I-3000J0D01*
G01*
X1152000Y681000D02*
G03*
X1144000Y673000I0J-8000D01*
G01*
X944900Y700000D02*
G03*
X936900Y692000I0J-8000D01*
G01*
X857000D02*
G03*
X853000Y688000I0J-4000D01*
G01*
X949500Y670100D02*
G03*
X945000Y674600I-4500J0D01*
G01*
X936900Y682700D02*
G03*
X945000Y674600I8100J0D01*
G01*
X853000Y671500D02*
G03*
X854000Y670500I1000J0D01*
G01*
X1558000Y1414600D02*
G03*
X1532600Y1440000I-25400J0D01*
G01*
X1359000Y1457000D02*
G03*
X1376000Y1440000I17000J0D01*
G01*
X1848500Y1483600D02*
G03*
X1823100Y1509000I-25400J0D01*
G01*
X1827100Y1277000D02*
G03*
X1848500Y1298400I0J21400D01*
G01*
X1777400Y1277000D02*
G03*
X1752000Y1251600I0J-25400D01*
G01*
X1726600Y1128350D02*
G03*
X1752000Y1153750I0J25400D01*
G01*
X1762600Y1115650D02*
G03*
X1788000Y1141050I0J25400D01*
G01*
X1481000D02*
G03*
X1506400Y1115650I25400J0D01*
G01*
X1439500Y1128350D02*
G03*
X1464900Y1102950I25400J0D01*
G01*
X1484000Y1327000D02*
G03*
X1497900Y1340900I0J13900D01*
G01*
X1484000Y1327000D02*
G03*
X1468000Y1311000I0J-16000D01*
G01*
X1515400Y1285000D02*
G03*
X1511224Y1284654I0J-25400D01*
G01*
X1506400D02*
G03*
X1481000Y1259254I0J-25400D01*
G01*
X1460000Y1249000D02*
G03*
X1468000Y1257000I0J8000D01*
G01*
X1460000Y1249000D02*
G03*
X1439500Y1228500I0J-20500D01*
G01*
X1535000Y1285000D02*
G03*
X1558000Y1308000I0J23000D01*
G01*
X937650Y1180350D02*
G03*
X936000Y1182000I-1650J0D01*
G01*
X915400Y1250000D02*
G03*
X907987Y1248894I0J-25400D01*
G01*
X873400D02*
G03*
X848000Y1223494I0J-25400D01*
G01*
Y1182000D02*
G03*
X862350Y1167650I14350J0D01*
G01*
X835000Y1180350D02*
G03*
X860400Y1154950I25400J0D01*
G01*
X903400Y1261000D02*
G03*
X915400Y1273000I0J12000D01*
G01*
X860400Y1261000D02*
G03*
X835000Y1235600I0J-25400D01*
G01*
X869351Y845351D02*
G03*
X860000Y836000I0J-9351D01*
G01*
X841350Y817350D02*
G03*
X860000Y836000I0J18650D01*
G01*
X775400Y817350D02*
G03*
X750000Y791950I0J-25400D01*
G01*
X739000Y564000D02*
G03*
X759000Y544000I20000J0D01*
G01*
X756700Y676554D02*
G03*
X771000Y699400I-11100J22846D01*
G01*
X756700Y676554D02*
G03*
X739000Y658854I0J-17700D01*
G01*
X796400Y804650D02*
G03*
X771000Y779250I0J-25400D01*
G01*
X828400Y791950D02*
G03*
X803000Y766550I0J-25400D01*
G01*
X788100Y587400D02*
G03*
X813500Y562000I25400J0D01*
G01*
X1366000Y606000D02*
G03*
X1386000Y626000I0J20000D01*
G01*
X1393000Y690500D02*
G03*
X1386000Y683500I0J-7000D01*
G01*
X1393000Y690500D02*
G03*
X1408000Y705500I0J15000D01*
G01*
X1433400Y791950D02*
G03*
X1408000Y766550I0J-25400D01*
G01*
X1205000Y1254000D02*
G03*
X1224000Y1273000I0J19000D01*
G01*
X1177400Y1254000D02*
G03*
X1152000Y1228600I0J-25400D01*
G01*
X1126600Y1167650D02*
G03*
X1152000Y1193050I0J25400D01*
G01*
X1162400Y1286000D02*
G03*
X1137000Y1260600I0J-25400D01*
G01*
X1111600Y1180350D02*
G03*
X1137000Y1205750I0J25400D01*
G01*
X1177399Y436899D02*
G03*
X1176500Y436000I0J-899D01*
G01*
X988000Y607400D02*
G03*
X1013400Y582000I25400J0D01*
G01*
X1212000Y560000D02*
G03*
X1190000Y582000I-22000J0D01*
G01*
X1052000Y704000D02*
G03*
X1071000Y723000I0J19000D01*
G01*
Y791950D02*
G03*
X1045600Y817350I-25400J0D01*
G01*
X1013400Y704000D02*
G03*
X988000Y678600I0J-25400D01*
G01*
X870911Y603400D02*
G03*
X851000Y578600I5489J-24800D01*
G01*
X838000Y562000D02*
G03*
X851000Y575000I0J13000D01*
G01*
X876400Y604000D02*
G03*
X870911Y603400I0J-25400D01*
G01*
X854000Y620311D02*
G03*
X870911Y603400I16911J0D01*
G01*
X909100Y604000D02*
G03*
X934500Y629400I0J25400D01*
G01*
X1654400Y1509000D02*
G03*
X1629000Y1483600I0J-25400D01*
G01*
X1654400Y1584101D02*
G03*
X1629000Y1558701I0J-25400D01*
G01*
X1786900Y1290600D02*
G03*
X1788000Y1289500I1100J0D01*
G01*
X1722000Y1417000D02*
G03*
X1721000Y1418000I-1000J0D01*
G01*
X1801900Y1392600D02*
G03*
X1776500Y1418000I-25400J0D01*
G01*
X1643300D02*
G03*
X1617900Y1392600I0J-25400D01*
G01*
X1587900Y1311100D02*
G03*
X1595000Y1304000I7100J0D01*
G01*
X1587900Y1728100D02*
G03*
X1587000Y1729000I-900J0D01*
G01*
X1449000Y1429000D02*
G03*
X1448000Y1428000I0J-1000D01*
G01*
X1512900Y1403600D02*
G03*
X1487500Y1429000I-25400J0D01*
G01*
X1372300D02*
G03*
X1346900Y1403600I0J-25400D01*
G01*
X1316900Y1312100D02*
G03*
X1320000Y1309000I3100J0D01*
G01*
X1359851Y1584101D02*
G03*
X1359000Y1583250I0J-851D01*
G01*
X1316900Y1558100D02*
G03*
X1307000Y1568000I-9900J0D01*
G01*
X1298000Y1577000D02*
G03*
X1307000Y1568000I9000J0D01*
G01*
X1257000Y1286000D02*
G03*
X1280000Y1309000I0J23000D01*
G01*
Y1466600D02*
G03*
X1254600Y1492000I-25400J0D01*
G01*
X1072000D02*
G03*
X1050000Y1470000I0J-22000D01*
G01*
X1149000Y1414000D02*
G03*
X1148000Y1413000I0J-1000D01*
G01*
X1239000Y1388600D02*
G03*
X1213600Y1414000I-25400J0D01*
G01*
X1064300D02*
G03*
X1038900Y1388600I0J-25400D01*
G01*
X1008000Y1315000D02*
G03*
X1008900Y1315900I0J900D01*
G01*
X1034500Y1571400D02*
G03*
X1038900Y1567000I4400J0D01*
G01*
X1050000Y1555900D02*
G03*
X1038900Y1567000I-11100J0D01*
G01*
X931101Y1727899D02*
G03*
X930000Y1729000I-1101J0D01*
G01*
X720500Y1728500D02*
G03*
X720000Y1729000I-500J0D01*
G01*
X932000Y1384600D02*
G03*
X906600Y1410000I-25400J0D01*
G01*
X776300D02*
G03*
X750900Y1384600I0J-25400D01*
G01*
X717000Y1331000D02*
G03*
X712000Y1326000I0J-5000D01*
G01*
X717000Y1331000D02*
G03*
X720900Y1334900I0J3900D01*
G01*
X915900Y1350100D02*
G03*
X915400Y1349600I0J-500D01*
G01*
X949600Y1250000D02*
G03*
X975000Y1275400I0J25400D01*
G01*
Y1459600D02*
G03*
X949600Y1485000I-25400J0D01*
G01*
X781000D02*
G03*
X768000Y1472000I0J-13000D01*
G01*
X755851Y1568149D02*
G03*
X759000Y1565000I3149J0D01*
G01*
X767000Y1557000D02*
G03*
X759000Y1565000I-8000J0D01*
G01*
X1745000Y610000D02*
G03*
X1746000Y609000I1000J0D01*
G01*
X1629100Y634400D02*
G03*
X1654500Y609000I25400J0D01*
G01*
X1786700D02*
G03*
X1812100Y634400I0J25400D01*
G01*
X1848000Y669000D02*
G03*
X1842100Y663100I0J-5900D01*
G01*
X1848000Y669000D02*
G03*
X1854000Y675000I0J6000D01*
G01*
X1684000Y791950D02*
G03*
X1658600Y817350I-25400J0D01*
G01*
X1670600Y708000D02*
G03*
X1684000Y721400I0J13400D01*
G01*
X1611400Y708000D02*
G03*
X1586000Y682600I0J-25400D01*
G01*
Y556400D02*
G03*
X1611400Y531000I25400J0D01*
G01*
X1777600D02*
G03*
X1803000Y556400I0J25400D01*
G01*
X1652000Y779250D02*
G03*
X1626600Y804650I-25400J0D01*
G01*
X1650000Y672000D02*
G03*
X1644100Y666100I0J-5900D01*
G01*
X1650000Y672000D02*
G03*
X1652000Y674000I0J2000D01*
G01*
X1806000Y439048D02*
G03*
X1808149Y436899I2149J0D01*
G01*
X1802000Y460000D02*
G03*
X1806000Y456000I4000J0D01*
G01*
X1842100Y302900D02*
G03*
X1845000Y300000I2900J0D01*
G01*
X1494700Y589000D02*
G03*
X1520100Y614400I0J25400D01*
G01*
X1431000Y590000D02*
G03*
X1432000Y589000I1000J0D01*
G01*
X1198700Y599000D02*
G03*
X1224100Y624400I0J25400D01*
G01*
X1035100Y612000D02*
G03*
X1048100Y599000I13000J0D01*
G01*
X1559000Y669000D02*
G03*
X1550100Y660100I0J-8900D01*
G01*
X1559000Y669000D02*
G03*
X1567000Y677000I0J8000D01*
G01*
X1266000Y661000D02*
G03*
X1254100Y649100I0J-11900D01*
G01*
X1266000Y661000D02*
G03*
X1273000Y668000I0J7000D01*
G01*
X1320400Y804650D02*
G03*
X1295000Y779250I0J-25400D01*
G01*
Y562400D02*
G03*
X1320400Y537000I25400J0D01*
G01*
X1485600D02*
G03*
X1511000Y562400I0J25400D01*
G01*
X908900Y572100D02*
G03*
X907900Y571100I0J-1000D01*
G01*
X898600Y544000D02*
G03*
X924000Y569400I0J25400D01*
G01*
X924149Y468851D02*
G03*
X921000Y472000I-3149J0D01*
G01*
X919000Y474000D02*
G03*
X921000Y472000I2000J0D01*
G01*
X1049000Y779250D02*
G03*
X1023600Y804650I-25400J0D01*
G01*
X967000Y677000D02*
G03*
X964500Y674500I0J-2500D01*
G01*
X967000Y677000D02*
G03*
X969000Y679000I0J2000D01*
G01*
X964500Y300500D02*
G03*
X965000Y300000I500J0D01*
G01*
X1226149Y456851D02*
G03*
X1221000Y462000I-5149J0D01*
G01*
X1213000Y470000D02*
G03*
X1221000Y462000I8000J0D01*
G01*
X1625000Y1304000D02*
X1671000D01*
X1696600D01*
X1619000D02*
X1625000D01*
X1630000Y1309000D02*
Y1313000D01*
X1384000Y1309000D02*
X1423600D01*
X1449000Y1334400D02*
Y1356000D01*
X1032000Y1315000D02*
Y1322000D01*
X1083000Y1315000D02*
X1122600D01*
X1023900Y1330100D02*
Y1344100D01*
X776000Y1315000D02*
X833600D01*
X737000D02*
X776000D01*
X775000Y1290000D02*
Y1314000D01*
X1785000Y693000D02*
Y717500D01*
X1473000Y690000D02*
Y706500D01*
X1671000Y1290000D02*
X1671500Y1289500D01*
X1671000Y1290000D02*
Y1304000D01*
X1344000Y1309000D02*
X1384000D01*
X1383500Y1288000D02*
X1384000Y1288500D01*
Y1309000D01*
X1032000Y1315000D02*
X1083000D01*
Y1283500D02*
Y1315000D01*
X1148000Y1340400D02*
Y1349500D01*
X1602900Y1340100D02*
Y1344100D01*
X1344000Y1309000D02*
Y1319000D01*
X1331900Y1331100D02*
Y1344100D01*
X1786000Y692000D02*
X1830000D01*
X1827100Y644900D02*
Y689100D01*
X1756500Y692000D02*
X1786000D01*
X1474000Y689000D02*
X1527000D01*
X1543000D01*
X1444000D02*
X1474000D01*
X1535100Y644900D02*
Y680900D01*
X1431000Y668500D02*
Y676000D01*
X737000Y1315000D02*
Y1347000D01*
X1237000Y670000D02*
Y681000D01*
X1152000D02*
X1195000D01*
X1240000Y641000D02*
Y667000D01*
X1144000Y658000D02*
Y673000D01*
X944900Y700000D02*
X950000D01*
X894000Y692000D02*
X936900D01*
Y682700D02*
Y692000D01*
X949500Y653000D02*
Y670100D01*
X857000Y692000D02*
X894000D01*
X853000Y671500D02*
Y688000D01*
X1519000Y1132500D02*
X1527208D01*
X1531358Y1128350D01*
X1541750D01*
X1508500Y1132500D02*
X1519000D01*
X1501149Y1139851D02*
X1508500Y1132500D01*
X1498899Y1139851D02*
X1501149D01*
X1558000Y1308000D02*
Y1414600D01*
X1376000Y1440000D02*
X1532600D01*
X1343399Y1457000D02*
X1359000D01*
X1376399D01*
X1654400Y1509000D02*
X1823100D01*
X1777400Y1277000D02*
X1827100D01*
X1848500Y1298400D02*
Y1483600D01*
X1687000Y1584101D02*
X1702500D01*
X1596250Y1141050D02*
X1624000D01*
X1752000Y1153750D02*
Y1251600D01*
X1639000Y1148000D02*
X1647000D01*
X1632050Y1141050D02*
X1639000Y1148000D01*
X1624000Y1141050D02*
X1632050D01*
X1596250Y1128350D02*
X1726600D01*
X1596250Y1115650D02*
X1762600D01*
X1506400D02*
X1541750D01*
X1481000Y1141050D02*
Y1259254D01*
X1464900Y1102950D02*
X1541750D01*
X1439500Y1128350D02*
Y1228500D01*
X1468000Y1298500D02*
Y1311000D01*
X1497900Y1340900D02*
Y1350100D01*
X1515400Y1285000D02*
X1535000D01*
X1506400Y1284654D02*
X1511224D01*
X1468000Y1257000D02*
Y1271500D01*
X913000Y1182000D02*
X936000D01*
X892000Y1189000D02*
X898475D01*
X905475Y1182000D01*
X913000D01*
X907987Y1248894D02*
X907987D01*
X873400D02*
X907987D01*
X848000Y1182000D02*
Y1223494D01*
X862350Y1167650D02*
X937650D01*
X860400Y1154950D02*
X937650D01*
X835000Y1180350D02*
Y1235600D01*
X860400Y1261000D02*
X903400D01*
X869351Y845351D02*
X884899D01*
X775400Y817350D02*
X841350D01*
X750000Y729000D02*
Y791950D01*
X885149Y827899D02*
X907101D01*
X759000Y544000D02*
X898600D01*
X739000Y564000D02*
Y658854D01*
X771000Y699400D02*
Y779250D01*
X796400Y804650D02*
X939750D01*
X828400Y791950D02*
X939750D01*
X803000Y696200D02*
Y766550D01*
Y634900D02*
Y669200D01*
Y634900D02*
X803100D01*
X813500Y562000D02*
X838000D01*
X788100Y587400D02*
Y640900D01*
X907101Y827899D02*
X917650Y817350D01*
X1386000Y626000D02*
Y640000D01*
Y667000D02*
Y683500D01*
X1408000Y705500D02*
Y766550D01*
X1177400Y1254000D02*
X1205000D01*
X1152000Y1193050D02*
Y1228600D01*
X992150Y1167650D02*
X1126600D01*
X1162400Y1286000D02*
X1257000D01*
X1137000Y1205750D02*
Y1260600D01*
X992150Y1180350D02*
X1111600D01*
X1779000Y437000D02*
X1791649D01*
X1177399Y436899D02*
X1192000D01*
X869000Y440798D02*
X888325D01*
X1765500Y437000D02*
X1779000D01*
X1490000Y432548D02*
X1504149D01*
X1478000D02*
X1490000D01*
X888325Y440798D02*
X907649D01*
X1192000Y406399D02*
Y436899D01*
X1687000Y1584101D02*
Y1614601D01*
X1721000Y1418000D02*
X1776500D01*
X988000Y607400D02*
Y678600D01*
X1013400Y582000D02*
X1190000D01*
X1212000Y560000D02*
X1227500D01*
X1194500D02*
X1212000D01*
X1071000Y723000D02*
Y791950D01*
X1013400Y704000D02*
X1052000D01*
X994250Y817350D02*
X1045600D01*
X851000Y575000D02*
Y578600D01*
X876400Y604000D02*
X909100D01*
X854000Y620311D02*
Y643500D01*
X1067000Y1584000D02*
X1083000D01*
X1051000D02*
X1067000D01*
X1396000D02*
X1412500D01*
X1376351D02*
X1396000D01*
X1671500Y1584101D02*
X1687000D01*
X1192000Y436899D02*
X1209649D01*
X1490000Y404000D02*
Y432548D01*
Y402049D02*
Y404000D01*
X1779000Y406501D02*
Y437000D01*
X791425Y1584000D02*
Y1614499D01*
X1067000Y1584000D02*
Y1614499D01*
X1396000Y1584000D02*
Y1614499D01*
X888325Y410298D02*
Y440798D01*
X754899Y384501D02*
Y415000D01*
X1045000Y384501D02*
Y415000D01*
X1339899Y384602D02*
X1393899Y408101D01*
X1635000Y384501D02*
Y415000D01*
X754899Y300000D02*
Y368001D01*
X1045000Y300000D02*
Y368001D01*
X1339899Y300101D02*
Y368102D01*
X1635000Y300000D02*
Y368001D01*
X931101Y1614001D02*
Y1644500D01*
X1219000Y1632000D02*
Y1644499D01*
X1508101Y1614000D02*
Y1644499D01*
X1797000Y1614000D02*
Y1644499D01*
X1629000Y1457000D02*
Y1483600D01*
Y1457000D02*
X1648000D01*
X1612500D02*
X1629000D01*
X1702500Y1584000D02*
Y1584101D01*
X1654400D02*
X1655000D01*
X1629000Y1545000D02*
X1648500D01*
X1612500D02*
X1629000D01*
Y1558701D01*
X1788000Y1141050D02*
Y1262500D01*
X1786900Y1290600D02*
Y1350100D01*
X1643300Y1418000D02*
X1721000D01*
X1722000Y1381600D02*
Y1417000D01*
X1801900Y1344100D02*
Y1392600D01*
X1617900Y1350100D02*
Y1392600D01*
X1722000Y1329400D02*
Y1354600D01*
X1587900Y1311100D02*
Y1350100D01*
Y1728100D01*
X1449000Y1429000D02*
X1487500D01*
X1372300D02*
X1449000D01*
X1448000Y1381600D02*
Y1428000D01*
X1512900Y1344100D02*
Y1403600D01*
X1346900Y1350100D02*
Y1403600D01*
X1316900Y1350100D02*
Y1558100D01*
Y1312100D02*
Y1350100D01*
X1376351Y1584000D02*
Y1584101D01*
X1359000Y1540000D02*
X1372399D01*
X1343399D02*
X1359000D01*
Y1583250D01*
X1298000Y1577000D02*
Y1729000D01*
X1280000Y1309000D02*
Y1466600D01*
X1072000Y1492000D02*
X1254600D01*
X859000Y1340400D02*
Y1349500D01*
X1050000Y1457000D02*
X1065500D01*
X1035900D02*
X1050000D01*
Y1470000D01*
X1008900Y1350100D02*
Y1729000D01*
X1024101Y1197649D02*
X1049851D01*
X1009649D02*
X1024101D01*
X1005050Y1193050D02*
X1009649Y1197649D01*
X992150Y1193050D02*
X1005050D01*
X1224000Y1300000D02*
Y1350100D01*
X1149000Y1414000D02*
X1213600D01*
X1064300D02*
X1149000D01*
X1148000Y1376500D02*
Y1413000D01*
X1239000Y1344100D02*
Y1388600D01*
X1038900Y1350100D02*
Y1388600D01*
X1008900Y1315900D02*
Y1350100D01*
X1051000Y1584000D02*
Y1584101D01*
X1034500Y1571400D02*
Y1584101D01*
X1050000Y1540000D02*
X1064500D01*
X1037000D02*
X1050000D01*
Y1555900D01*
X1508101Y1660999D02*
Y1729000D01*
X1797000Y1660999D02*
Y1729000D01*
X1008900D02*
X1009000D01*
X931101Y1661000D02*
Y1727899D01*
X720900Y1354100D02*
Y1540000D01*
X719900Y1729000D02*
Y1731000D01*
X720500Y1540000D02*
Y1728500D01*
X859000Y1410000D02*
X906600D01*
X776300D02*
X859000D01*
Y1376500D02*
Y1410000D01*
X750900Y1354100D02*
Y1384600D01*
X736000Y1315000D02*
X737000D01*
X712000D02*
Y1326000D01*
X720900Y1334900D02*
Y1354100D01*
X1219000Y1729000D02*
X1219000D01*
Y1660999D02*
Y1729000D01*
X1508000D02*
X1508101D01*
X915400Y1300000D02*
Y1349600D01*
X975000Y1275400D02*
Y1459600D01*
X915400Y1250000D02*
X949600D01*
X781000Y1485000D02*
X949600D01*
X768000Y1457000D02*
X788000D01*
X747500D02*
X768000D01*
Y1472000D01*
X755851Y1568149D02*
Y1584101D01*
X767000Y1540000D02*
Y1557000D01*
X772351Y1584000D02*
Y1584101D01*
Y1584000D02*
X810500D01*
X767000Y1540000D02*
X785000D01*
X747500D02*
X767000D01*
X1623351Y843000D02*
X1662000D01*
X1610401Y830050D02*
X1623351Y843000D01*
X1598250Y830050D02*
X1610401D01*
X1503000Y826000D02*
X1515000D01*
X1477000D02*
X1503000D01*
X1515000D02*
X1523650Y817350D01*
X1543750D01*
X1746000Y609000D02*
X1786700D01*
X1654500D02*
X1746000D01*
X1745000Y610000D02*
Y653500D01*
X1629100Y634400D02*
Y644900D01*
X1812100Y634400D02*
Y638900D01*
X1842100D02*
Y663100D01*
X1854000Y675000D02*
Y692000D01*
X1842100Y302900D02*
Y638900D01*
X1598250Y817350D02*
X1658600D01*
X1684000Y721400D02*
Y791950D01*
X1611400Y708000D02*
X1670600D01*
X1586000Y556400D02*
Y682600D01*
X1611400Y531000D02*
X1777600D01*
X1803000Y565650D02*
X1816500D01*
X1789500D02*
X1803000D01*
Y556400D02*
Y565650D01*
X1598250Y804650D02*
X1626600D01*
X1652000Y721500D02*
Y779250D01*
X1644100Y638900D02*
Y666100D01*
X1652000Y674000D02*
Y694500D01*
X1791649Y436899D02*
Y437000D01*
X1802000Y476000D02*
X1816500D01*
X1788000D02*
X1802000D01*
X1806000Y439048D02*
Y456000D01*
X1802000Y460000D02*
Y476000D01*
X1431000Y590000D02*
Y641500D01*
X1432000Y589000D02*
X1494700D01*
X1365500D02*
X1432000D01*
X1144000Y599000D02*
X1198700D01*
X1035100Y612000D02*
Y653000D01*
X1048100Y599000D02*
X1144000D01*
X894000Y692000D02*
Y703500D01*
X1520100Y614400D02*
Y638900D01*
X1144000Y599000D02*
Y631000D01*
X1550100Y300100D02*
Y638900D01*
Y660100D01*
X1567000Y677000D02*
Y689000D01*
X1195000Y681000D02*
X1237000D01*
X1195000D02*
Y692500D01*
X1237000Y681000D02*
X1250000D01*
X1254100Y300900D02*
Y638900D01*
Y649100D01*
X1273000Y668000D02*
Y681000D01*
X1320400Y804650D02*
X1543750D01*
X1295000Y562400D02*
Y779250D01*
X1433400Y791950D02*
X1543750D01*
X1320400Y537000D02*
X1485600D01*
X1511000Y565649D02*
X1524000D01*
X1494000D02*
X1511000D01*
Y562400D02*
Y565649D01*
X1339899Y300101D02*
X1340000Y300000D01*
X1508000Y477649D02*
X1523500D01*
X1491851D02*
X1508000D01*
X1520649Y432548D02*
Y448351D01*
X1508000Y461000D02*
X1520649Y448351D01*
X1508000Y461000D02*
Y477649D01*
X1491500Y478000D02*
X1491851Y477649D01*
X1550000Y300000D02*
X1550100Y300100D01*
X1014501Y841101D02*
X1056951D01*
X1003450Y830050D02*
X1014501Y841101D01*
X994250Y830050D02*
X1003450D01*
X917650Y817350D02*
X939750D01*
X934500Y629400D02*
Y647000D01*
X924000Y572100D02*
X936900D01*
X908900D02*
X924000D01*
Y569400D02*
Y572100D01*
X869000Y440798D02*
Y440899D01*
X924149Y440798D02*
Y468851D01*
X919000Y491100D02*
X937400D01*
X893500D02*
X919000D01*
Y474000D02*
Y491100D01*
X893500Y491000D02*
Y491100D01*
X754899Y300000D02*
X755000D01*
X994250Y804650D02*
X1023600D01*
X1049000Y717500D02*
Y779250D01*
X1050100Y647000D02*
Y692400D01*
X1224100Y624400D02*
Y638900D01*
X964500Y300500D02*
Y647000D01*
Y674500D01*
X969000Y679000D02*
Y689000D01*
X1226149Y436899D02*
Y456851D01*
X1213000Y481000D02*
X1227500D01*
X1197500D02*
X1213000D01*
Y470000D02*
Y481000D01*
X1250100Y304900D02*
X1254100Y300900D01*
X1255000Y300000D01*
D90*
X2098000Y923000D02*
D03*
X2094000Y1669925D02*
D03*
X869351Y752000D02*
D03*
X1700000Y1166000D02*
D03*
X1671000Y1271000D02*
D03*
X1363000Y1223000D02*
D03*
X1082000Y1254000D02*
D03*
X775000Y1228000D02*
D03*
X1032101Y1260000D02*
D03*
X1089000Y1196000D02*
D03*
X1733000Y818000D02*
D03*
X1497000Y873000D02*
D03*
X901000Y771000D02*
D03*
X1091500Y846000D02*
D03*
X750000Y729000D02*
D03*
X704000Y737000D02*
D03*
X1734000Y392000D02*
D03*
X1713000D02*
D03*
X1670000D02*
D03*
X1691000D02*
D03*
X1467000Y881000D02*
D03*
X1683000Y880351D02*
D03*
X1923000Y879000D02*
D03*
X1764000Y653000D02*
D03*
X1192000Y406399D02*
D03*
X1687000Y1614601D02*
D03*
X496000Y964000D02*
D03*
X473000Y938000D02*
D03*
X609000Y732000D02*
D03*
X440000Y927000D02*
D03*
X611036Y755360D02*
D03*
X646000Y797000D02*
D03*
X712000Y764000D02*
D03*
X791425Y1614499D02*
D03*
X1067000D02*
D03*
X1396000D02*
D03*
X888325Y410298D02*
D03*
X1490000Y404000D02*
D03*
X1779000Y406501D02*
D03*
X754899Y415000D02*
D03*
X1045000D02*
D03*
X1393899Y408101D02*
D03*
X1635000Y415000D02*
D03*
X931101Y1614001D02*
D03*
X1219000Y1632000D02*
D03*
X1508101Y1614000D02*
D03*
X1797000D02*
D03*
D91*
X2301200Y923000D02*
D03*
Y719800D02*
D03*
Y821400D02*
D03*
X2098000Y846800D02*
D03*
Y796000D02*
D03*
X2297200Y1669925D02*
D03*
Y1466725D02*
D03*
Y1568325D02*
D03*
X2094000Y1593725D02*
D03*
Y1542925D02*
D03*
D92*
X606400Y1592000D02*
D03*
X492000D02*
D03*
D93*
X2527730Y1048938D02*
D03*
Y1144138D02*
D03*
X322000Y710800D02*
D03*
Y806000D02*
D03*
X2553200Y342000D02*
D03*
Y392000D02*
D03*
Y442000D02*
D03*
Y492000D02*
D03*
Y542000D02*
D03*
X1832000Y1729000D02*
D03*
X1797000D02*
D03*
X1762000D02*
D03*
X1727000D02*
D03*
X1692000D02*
D03*
X1657000D02*
D03*
X1622000D02*
D03*
X1587000D02*
D03*
X1543000D02*
D03*
X1508000D02*
D03*
X1473000D02*
D03*
X1438000D02*
D03*
X1403000D02*
D03*
X1368000D02*
D03*
X1333000D02*
D03*
X1298000D02*
D03*
X1254000D02*
D03*
X1219000D02*
D03*
X1184000D02*
D03*
X1149000D02*
D03*
X1114000D02*
D03*
X1079000D02*
D03*
X1044000D02*
D03*
X1009000D02*
D03*
X965000D02*
D03*
X930000D02*
D03*
X895000D02*
D03*
X860000D02*
D03*
X825000D02*
D03*
X790000D02*
D03*
X755000D02*
D03*
X720000D02*
D03*
X1600000Y300000D02*
D03*
X1635000D02*
D03*
X1670000D02*
D03*
X1705000D02*
D03*
X1740000D02*
D03*
X1775000D02*
D03*
X1810000D02*
D03*
X1845000D02*
D03*
X1305000D02*
D03*
X1340000D02*
D03*
X1375000D02*
D03*
X1410000D02*
D03*
X1445000D02*
D03*
X1480000D02*
D03*
X1515000D02*
D03*
X1550000D02*
D03*
X1010000D02*
D03*
X1045000D02*
D03*
X1080000D02*
D03*
X1115000D02*
D03*
X1150000D02*
D03*
X1185000D02*
D03*
X1220000D02*
D03*
X1255000D02*
D03*
X720000D02*
D03*
X755000D02*
D03*
X790000D02*
D03*
X825000D02*
D03*
X860000D02*
D03*
X895000D02*
D03*
X930000D02*
D03*
X965000D02*
D03*
D94*
X1879270Y1229500D02*
D03*
X1898000D02*
D03*
Y1253000D02*
D03*
X1919000D02*
D03*
X1528708Y999520D02*
D03*
X1509416Y1000310D02*
D03*
X1509438Y1024020D02*
D03*
X1528708Y1023020D02*
D03*
X1509438Y1046020D02*
D03*
X1807000Y744000D02*
D03*
X1508000Y747000D02*
D03*
X1179000Y757000D02*
D03*
X1499000Y1173000D02*
D03*
X1441270Y1523250D02*
D03*
X1460000Y1522990D02*
D03*
X1481000Y1523000D02*
D03*
X1422000Y1523250D02*
D03*
X1441270Y1500250D02*
D03*
X1460000D02*
D03*
X1481000D02*
D03*
X1422000Y1501250D02*
D03*
X1441270Y1476750D02*
D03*
X1460000D02*
D03*
X1481000D02*
D03*
X1422000D02*
D03*
X1356270Y770250D02*
D03*
X1375000Y769990D02*
D03*
X1396000Y770000D02*
D03*
X1337000Y770250D02*
D03*
X1356270Y747250D02*
D03*
X1375000D02*
D03*
X1396000D02*
D03*
X1337000Y748250D02*
D03*
X1356270Y723750D02*
D03*
X1375000D02*
D03*
X1396000D02*
D03*
X1336978Y724540D02*
D03*
X1765230Y1015832D02*
D03*
X1783960Y1015572D02*
D03*
X1804960Y1015582D02*
D03*
X1745960Y1015832D02*
D03*
X1765230Y992832D02*
D03*
X1783960D02*
D03*
X1804960D02*
D03*
X1745960Y993832D02*
D03*
X1765230Y969332D02*
D03*
X1783960D02*
D03*
X1804960D02*
D03*
X1745938Y970122D02*
D03*
X1581000Y1229750D02*
D03*
X1640000D02*
D03*
X1619000D02*
D03*
X1600270D02*
D03*
X1581000Y1254250D02*
D03*
X1640000Y1253250D02*
D03*
X1619000D02*
D03*
X1600270D02*
D03*
X1581000Y1276250D02*
D03*
X1640000Y1276000D02*
D03*
X1619000Y1275990D02*
D03*
X1600270Y1276250D02*
D03*
X1568438Y999520D02*
D03*
X1547438D02*
D03*
X1568438Y1023020D02*
D03*
X1547438D02*
D03*
X1568438Y1045770D02*
D03*
X1547438Y1045760D02*
D03*
X1528708Y1046020D02*
D03*
X1879270Y1276000D02*
D03*
X1898000Y1275740D02*
D03*
X1919000Y1275750D02*
D03*
X1860000Y1276000D02*
D03*
X1879270Y1253000D02*
D03*
X1860000Y1254000D02*
D03*
X1919000Y1229500D02*
D03*
X1860000D02*
D03*
X1500000Y1070000D02*
D03*
X1464000Y1144138D02*
D03*
X1374000Y957000D02*
D03*
X1359000Y944000D02*
D03*
X1247000Y903000D02*
D03*
Y890000D02*
D03*
Y914851D02*
D03*
X1247600Y877000D02*
D03*
X1247000Y863649D02*
D03*
X1113000Y851000D02*
D03*
X1112000Y821750D02*
D03*
Y806750D02*
D03*
X1239000Y793000D02*
D03*
Y777000D02*
D03*
X1112000Y791750D02*
D03*
X1239000Y823000D02*
D03*
Y808000D02*
D03*
X1358000Y907000D02*
D03*
X1359000Y931000D02*
D03*
X1349600Y868899D02*
D03*
X1349000Y894899D02*
D03*
Y881899D02*
D03*
Y855549D02*
D03*
X1112750Y837000D02*
D03*
X1901000Y515500D02*
D03*
X1960000D02*
D03*
X1939000D02*
D03*
X1920270D02*
D03*
X1901000Y540000D02*
D03*
X1960000Y539000D02*
D03*
X1939000D02*
D03*
X1920270D02*
D03*
X1901000Y562000D02*
D03*
X1960000Y561750D02*
D03*
X1939000Y561740D02*
D03*
X1920270Y562000D02*
D03*
X1181000Y1211000D02*
D03*
Y1181000D02*
D03*
Y1196000D02*
D03*
Y1165000D02*
D03*
X1424900Y1133500D02*
D03*
Y1103500D02*
D03*
Y1118500D02*
D03*
Y1087500D02*
D03*
X1112000Y775750D02*
D03*
X1330000Y980000D02*
D03*
X1317000D02*
D03*
X1331000Y993000D02*
D03*
X1317000D02*
D03*
D95*
X1050600Y544500D02*
D03*
X1061600Y555500D02*
D03*
Y544500D02*
D03*
X687750Y423250D02*
D03*
Y412250D02*
D03*
X676750Y423250D02*
D03*
Y412250D02*
D03*
X1050600Y555500D02*
D03*
X1061600Y522500D02*
D03*
X1050600D02*
D03*
X1061600Y533500D02*
D03*
X1050600D02*
D03*
X804501Y867601D02*
D03*
X815501D02*
D03*
X804501Y856601D02*
D03*
X815501D02*
D03*
X804501Y845601D02*
D03*
X815501D02*
D03*
X804501Y834601D02*
D03*
X815501D02*
D03*
D96*
X647250Y428750D02*
D03*
Y419750D02*
D03*
Y411250D02*
D03*
Y402750D02*
D03*
X669250Y384750D02*
D03*
X678250D02*
D03*
X686750D02*
D03*
X695250D02*
D03*
X716250Y428750D02*
D03*
Y419750D02*
D03*
Y411250D02*
D03*
Y402750D02*
D03*
X669250Y450750D02*
D03*
X677750D02*
D03*
X686250D02*
D03*
X695250D02*
D03*
D98*
X1082000Y1254000D02*
Y1282500D01*
X775000Y1228000D02*
Y1290000D01*
D99*
X1671000Y1271000D02*
Y1289000D01*
X1383500Y1243500D02*
Y1288000D01*
X1363000Y1223000D02*
X1383500Y1243500D01*
D100*
X1326500Y921250D02*
D03*
Y914750D02*
D03*
Y908250D02*
D03*
Y901750D02*
D03*
Y895250D02*
D03*
Y888750D02*
D03*
Y882250D02*
D03*
Y875750D02*
D03*
Y869250D02*
D03*
Y862750D02*
D03*
X1267500Y921250D02*
D03*
Y914750D02*
D03*
Y908250D02*
D03*
Y901750D02*
D03*
Y895250D02*
D03*
Y888750D02*
D03*
Y882250D02*
D03*
Y875750D02*
D03*
Y869250D02*
D03*
Y862750D02*
D03*
D101*
X1190399Y915000D02*
D03*
Y905500D02*
D03*
Y896000D02*
D03*
X1216899D02*
D03*
Y905500D02*
D03*
Y915000D02*
D03*
D102*
X1596250Y1141050D02*
D03*
Y1128350D02*
D03*
Y1115650D02*
D03*
Y1102950D02*
D03*
X1541750Y1141050D02*
D03*
Y1128350D02*
D03*
Y1115650D02*
D03*
Y1102950D02*
D03*
X992150Y1193050D02*
D03*
Y1180350D02*
D03*
Y1167650D02*
D03*
Y1154950D02*
D03*
X937650Y1193050D02*
D03*
Y1180350D02*
D03*
Y1167650D02*
D03*
Y1154950D02*
D03*
X1598250Y830050D02*
D03*
Y817350D02*
D03*
Y804650D02*
D03*
Y791950D02*
D03*
X1543750Y830050D02*
D03*
Y817350D02*
D03*
Y804650D02*
D03*
Y791950D02*
D03*
X994250Y830050D02*
D03*
Y817350D02*
D03*
Y804650D02*
D03*
Y791950D02*
D03*
X939750Y830050D02*
D03*
Y817350D02*
D03*
Y804650D02*
D03*
Y791950D02*
D03*
D103*
X1786900Y1350100D02*
D03*
X1816900D02*
D03*
X1224000D02*
D03*
X1254000D02*
D03*
X1644100Y638900D02*
D03*
X1614100D02*
D03*
X1050100Y647000D02*
D03*
X1020100D02*
D03*
X1587900Y1350100D02*
D03*
X1617900D02*
D03*
X1008900D02*
D03*
X1038900D02*
D03*
X1842100Y638900D02*
D03*
X1812100D02*
D03*
X1254100D02*
D03*
X1224100D02*
D03*
X1497900Y1350100D02*
D03*
X1527900D02*
D03*
X915900Y1350100D02*
D03*
X945900D02*
D03*
X803100Y634900D02*
D03*
X773100D02*
D03*
X1316900Y1350100D02*
D03*
X1346900D02*
D03*
X720900Y1354100D02*
D03*
X750900D02*
D03*
X1550100Y638900D02*
D03*
X1520100D02*
D03*
X964500Y647000D02*
D03*
X934500D02*
D03*
D104*
X1801900Y1344100D02*
D03*
X1239000D02*
D03*
X1629100Y644900D02*
D03*
X1035100Y653000D02*
D03*
X1602900Y1344100D02*
D03*
X1023900D02*
D03*
X1827100Y644900D02*
D03*
X1239100D02*
D03*
X1512900Y1344100D02*
D03*
X930900Y1344100D02*
D03*
X788100Y640900D02*
D03*
X1331900Y1344100D02*
D03*
X735900Y1348100D02*
D03*
X1535100Y644900D02*
D03*
X949500Y653000D02*
D03*
D105*
X1366000Y606000D02*
D03*
Y576000D02*
D03*
D106*
X1360000Y591000D02*
D03*
D107*
X1619000Y1304000D02*
D03*
X1595000D02*
D03*
X1032000Y1315000D02*
D03*
X1008000D02*
D03*
X1830000Y692000D02*
D03*
X1854000D02*
D03*
X1250000Y681000D02*
D03*
X1274000D02*
D03*
X1344000Y1309000D02*
D03*
X1320000D02*
D03*
X736000Y1315000D02*
D03*
X712000D02*
D03*
X1543000Y689000D02*
D03*
X1567000D02*
D03*
X950000Y700000D02*
D03*
X974000D02*
D03*
D108*
X1280500Y1214225D02*
D03*
Y1207875D02*
D03*
Y1201525D02*
D03*
Y1195175D02*
D03*
Y1188825D02*
D03*
Y1182475D02*
D03*
Y1176125D02*
D03*
Y1169775D02*
D03*
X1225500Y1214225D02*
D03*
Y1207875D02*
D03*
Y1201525D02*
D03*
Y1195175D02*
D03*
Y1188825D02*
D03*
Y1182475D02*
D03*
Y1176125D02*
D03*
Y1169775D02*
D03*
X1205000Y829100D02*
D03*
Y822750D02*
D03*
Y816400D02*
D03*
Y810050D02*
D03*
Y803700D02*
D03*
Y797350D02*
D03*
Y791000D02*
D03*
Y784650D02*
D03*
X1150000Y829100D02*
D03*
Y822750D02*
D03*
Y816400D02*
D03*
Y810050D02*
D03*
Y803700D02*
D03*
Y797350D02*
D03*
Y791000D02*
D03*
Y784650D02*
D03*
D109*
X544000Y449500D02*
D03*
Y456000D02*
D03*
Y462500D02*
D03*
Y469000D02*
D03*
Y475500D02*
D03*
Y482000D02*
D03*
Y488500D02*
D03*
Y495000D02*
D03*
X603000Y449500D02*
D03*
Y456000D02*
D03*
Y462500D02*
D03*
Y469000D02*
D03*
Y475500D02*
D03*
Y482000D02*
D03*
Y488500D02*
D03*
Y495000D02*
D03*
D110*
X1345350Y942300D02*
X1360050Y957000D01*
X1374000D01*
X1359000Y942950D02*
Y944000D01*
X1350550Y934500D02*
X1359000Y942950D01*
X1247000Y903000D02*
X1248250Y901750D01*
X1247000Y903000D02*
X1247649Y903649D01*
X1247000Y890000D02*
X1248250Y888750D01*
X1252850Y882250D02*
X1267500D01*
X1247600Y877000D02*
X1252850Y882250D01*
X1248250Y888750D02*
X1267500D01*
X1247000Y914851D02*
X1249149D01*
X1255750Y908250D01*
X1247000Y863649D02*
X1247899Y862750D01*
X1345350Y925261D02*
Y942300D01*
X1334839Y914750D02*
X1345350Y925261D01*
X1326500Y914750D02*
X1334839D01*
X1350550Y923107D02*
Y934500D01*
X1335693Y908250D02*
X1350550Y923107D01*
X1326500Y908250D02*
X1335693D01*
X1359000Y924203D02*
Y931000D01*
X1336547Y901750D02*
X1359000Y924203D01*
X1326500Y901750D02*
X1336547D01*
X1337401Y895250D02*
X1349151Y907000D01*
X1358000D01*
X1326500Y895250D02*
X1337401D01*
X1342851Y888750D02*
X1349000Y894899D01*
X1326500Y888750D02*
X1342851D01*
X1348649Y882250D02*
X1349000Y881899D01*
X1326500Y882250D02*
X1348649D01*
X1342749Y875750D02*
X1349600Y868899D01*
X1326500Y875750D02*
X1342749D01*
X1349000Y855549D02*
Y856899D01*
X1336649Y869250D02*
X1349000Y856899D01*
X1326500Y869250D02*
X1336649D01*
X1247899Y862750D02*
X1267500D01*
Y908250D02*
X1273500D01*
X1255750D02*
X1267500D01*
Y901750D02*
X1273500D01*
X1248250D02*
X1267500D01*
Y882250D02*
X1273500D01*
M02*
